<?xml version="1.0" encoding="utf-8"?>
<!-- Generator: Adobe Illustrator 19.1.1, SVG Export Plug-In . SVG Version: 6.00 Build 0)  -->
<svg version="1.1" id="Layer_2" xmlns="http://www.w3.org/2000/svg" xmlns:xlink="http://www.w3.org/1999/xlink" x="0px" y="0px"
	 viewBox="0 0 59.8 45.5" style="enable-background:new 0 0 59.8 45.5;" xml:space="preserve">
<style type="text/css">
	.st0{fill:#DEDDDD;}
	.st1{fill:#BBBBBB;}
	.st2{fill:#6B6B6B;}
	.st3{fill:#BCBCBC;}
	.st4{opacity:0.3;fill:#121212;}
</style>
<polygon class="st0" points="5.9,7.9 14.8,39.4 35.8,33.5 27.7,4.6 24.3,2.7 "/>
<polygon class="st1" points="24.3,2.7 25,5.3 27.7,4.6 "/>
<rect x="9.6" y="9" transform="matrix(0.9626 -0.2709 0.2709 0.9626 -1.9657 5.1791)" class="st2" width="16.4" height="1.4"/>
<rect x="15.9" y="31.4" transform="matrix(0.9626 -0.2709 0.2709 0.9626 -7.8028 7.7265)" class="st2" width="16.4" height="1.4"/>
<rect x="10.2" y="11.3" transform="matrix(0.9626 -0.2709 0.2709 0.9626 -2.5685 5.4422)" class="st2" width="16.4" height="1.4"/>
<rect x="14.7" y="24.7" transform="matrix(0.9626 -0.2709 0.2709 0.9626 -6.6741 7.2339)" class="st2" width="16.4" height="6.2"/>
<rect x="11.1" y="14.8" transform="matrix(0.9626 -0.2709 0.2709 0.9626 -3.6415 4.6279)" class="st2" width="7.8" height="1.4"/>
<rect x="12.7" y="17" transform="matrix(0.9626 -0.2709 0.2709 0.9626 -5.1185 5.2725)" class="st2" width="7.8" height="8.3"/>
<rect x="19.3" y="12.5" transform="matrix(0.9626 -0.2709 0.2709 0.9626 -2.7011 6.7826)" class="st2" width="7.8" height="1.4"/>
<rect x="20" y="14.8" transform="matrix(0.9626 -0.2709 0.2709 0.9626 -3.3039 7.0457)" class="st2" width="7.8" height="1.4"/>
<rect x="20.6" y="17.1" transform="matrix(0.9626 -0.2709 0.2709 0.9626 -3.9067 7.3088)" class="st2" width="7.8" height="1.4"/>
<rect x="21.5" y="19" transform="matrix(0.9626 -0.2709 0.2709 0.9626 -4.7319 7.6688)" class="st2" width="7.8" height="3.9"/>
<polygon class="st0" points="33.2,2.2 25.5,34.1 46.8,39.1 53.8,9.9 51.7,6.7 "/>
<polygon class="st1" points="51.7,6.7 51.1,9.3 53.8,9.9 "/>
<rect x="34.4" y="8.9" transform="matrix(0.9725 0.2327 -0.2327 0.9725 3.4041 -9.6573)" class="st2" width="16.4" height="1.4"/>
<rect x="29" y="31.6" transform="matrix(0.9725 0.2327 -0.2327 0.9725 8.5266 -7.7739)" class="st2" width="16.4" height="1.4"/>
<rect x="33.9" y="11.3" transform="matrix(0.9725 0.2327 -0.2327 0.9725 3.9331 -9.4628)" class="st2" width="16.4" height="1.4"/>
<rect x="30.1" y="24.8" transform="matrix(0.9725 0.2327 -0.2327 0.9725 7.5361 -8.1381)" class="st2" width="16.4" height="6.2"/>
<rect x="33.4" y="12.6" transform="matrix(0.9725 0.2327 -0.2327 0.9725 4.1145 -8.3228)" class="st2" width="7.8" height="1.4"/>
<rect x="32.1" y="14.8" transform="matrix(0.9725 0.2327 -0.2327 0.9725 5.4107 -7.8462)" class="st2" width="7.8" height="8.3"/>
<rect x="41.8" y="14.6" transform="matrix(0.9725 0.2327 -0.2327 0.9725 4.8097 -10.2138)" class="st2" width="7.8" height="1.4"/>
<rect x="41.2" y="16.9" transform="matrix(0.9725 0.2327 -0.2327 0.9725 5.3387 -10.0193)" class="st2" width="7.8" height="1.4"/>
<rect x="40.7" y="19.3" transform="matrix(0.9725 0.2327 -0.2327 0.9725 5.8677 -9.8248)" class="st2" width="7.8" height="1.4"/>
<rect x="39.9" y="21.2" transform="matrix(0.9725 0.2327 -0.2327 0.9725 6.5918 -9.5585)" class="st2" width="7.8" height="3.9"/>
<polygon class="st3" points="19.1,4.3 19.1,37.1 40.9,37.1 40.9,7 38.2,4.3 "/>
<polygon class="st2" points="38.2,4.3 38.2,7 40.9,7 "/>
<rect x="21.8" y="8.6" class="st2" width="16.4" height="1.4"/>
<rect x="21.8" y="31.9" class="st2" width="16.4" height="1.4"/>
<rect x="21.8" y="11" class="st2" width="16.4" height="1.4"/>
<rect x="21.8" y="25" class="st2" width="16.4" height="6.2"/>
<rect x="21.8" y="13.4" class="st2" width="7.8" height="1.4"/>
<rect x="21.8" y="15.8" class="st2" width="7.8" height="8.3"/>
<rect x="30.4" y="13.4" class="st2" width="7.8" height="1.4"/>
<rect x="30.4" y="15.8" class="st2" width="7.8" height="1.4"/>
<rect x="30.4" y="18.2" class="st2" width="7.8" height="1.4"/>
<rect x="30.4" y="20.2" class="st2" width="7.8" height="3.9"/>
<ellipse class="st4" cx="30.9" cy="42.5" rx="16" ry="0.6"/>
<rect x="6.1" y="3.9" class="st4" width="1" height="2.3"/>
<rect x="2.2" y="7.5" class="st4" width="2.3" height="1"/>
<rect x="3" y="5.1" transform="matrix(0.7071 0.7071 -0.7071 0.7071 5.1664 -1.2147)" class="st4" width="2.1" height="1"/>
<rect x="55.3" y="8.4" class="st4" width="2.3" height="1"/>
<rect x="53" y="4.6" class="st4" width="1" height="2.3"/>
<rect x="54.8" y="5.9" transform="matrix(-0.7071 0.7071 -0.7071 -0.7071 99.8531 -28.4846)" class="st4" width="2.1" height="1"/>
</svg>
