[{
	"fldCd": "CHAR",
	"fldDesc": "Character",
	"fldTyp": "C",
	"value": "",
	"mandatoryFlag": true,
	"fldLength": 1
}, {
	"fldCd": "NUM",
	"fldDesc": "Number",
	"fldTyp": "N",
	"value": "",
	"mandatoryFlag": false,
	"fldLength": 10
}, {
	"fldCd": "INT",
	"fldDesc": "Integer",
	"fldTyp": "I",
	"value": "",
	"mandatoryFlag": true,
	"fldLength": 8
}, {
	"fldCd": "DAT",
	"fldDesc": "Date",
	"fldTyp": "D",
	"value": "",
	"mandatoryFlag": true
}]